{
  "data": {
    "layout-restorer:data": {
      "main": {
        "dock": {
          "type": "split-area",
          "orientation": "vertical",
          "sizes": [
            0.3,
            0.7
          ],
          "children": [
            {
              "type": "tab-area",
              "currentIndex": 0,
              "widgets": [
                "markdownviewer-widget:Welcome.md"
              ]
            },
            {
              "type": "tab-area",
              "currentIndex": 0,
              "widgets": [
                "terminal:1"
              ]
            }
          ]
        },
        "mode": "multiple-document",
        "current": "markdownviewer-widget:Welcome.md"
      },
      "left": {
        "collapsed": false,
        "current": "filebrowser",
        "widgets": [
          "filebrowser",
          "running-sessions",
          "command-palette",
          "tab-manager"
        ]
      },
      "right": {
        "collapsed": true,
        "widgets": []
      }
    },
    "terminal:1": {
      "data": {
        "name": "1"
      }
    },
    "markdownviewer-widget:Welcome.md": {
      "data": {
        "path": "Welcome.md",
        "factory": "Markdown Preview"
      }
    }
  },
  "metadata": {
    "id": "/lab"
  }
}
